{
	"blocks" : [
	
	],
	"weapons" : [
		{
			"name" : "MISSILE",
			"width" : 80,
			"height" : 10,
			"depth" : 0,
			"speed" : 10.0,
			"damage" : 50,
			"duration" : 5.0
		}
	],
	"ships" : [
		{
			"name" : "SHIP2D_T1",
			"posx" : 0,
			"posy" : 0,
			"posz" : 0,
			"width" : 40,
			"height" : 30,
			"depth" : 0,
			"life" : 100,
			"shield" : 100,
			"speed" : 0.6,
			"defaultWeapon" : {
				"name" : "DEFAULT",
				"width" : 5,
				"height" : 2,
				"depth" : 0,
				"speed" : 4.0,
				"damage" : 20,
				"duration" : 0.5
			}
		},
		{
			"name" : "SHIP3D_T1",
			"posx" : 0,
			"posy" : 0,
			"posz" : 0,
			"width" : 1,
			"height" : 1,
			"depth" : 1,
			"life" : 100,
			"shield" : 100,
			"speed" : 5.0,
			"defaultWeapon" : {
				"name" : "DEFAULT",
				"width" : 1,
				"height" : 1,
				"depth" : 1,
				"speed" : 10.0,
				"damage" : 10,
				"duration" : 1.0
			}
		}
	],
	"worlds" : [
		{
			"name" : "WORLD_G1",
			"width" : 1000,
			"height" : 1000,
			"depth" : 1000,
			"time" : 60 
		},
		{
			"name" : "WORLD_G2",
			"width" : 5000,
			"height" : 5000,
			"depth" : 5000,
			"time" : 300 
		},
		{
			"name" : "WORLD_G3",
			"width" : 5000,
			"height" : 5000,
			"depth" : 5000,
			"time" : 300 
		},
		{
			"name" : "WORLD_G4",
			"width" : 5000,
			"height" : 5000,
			"depth" : 5000,
			"time" : 0 
		}
	]
}